[gd_scene load_steps=5 format=2]

[ext_resource path="res://GFX/Enemys/cloud.png" type="Texture" id=1]
[ext_resource path="res://Enemies/Cloud.gd" type="Script" id=2]

[sub_resource type="Animation" id=1]
resource_name = "CloudMovement"
length = 8.0
loop = true
step = 1.0
tracks/0/type = "value"
tracks/0/path = NodePath(".:position")
tracks/0/interp = 1
tracks/0/loop_wrap = true
tracks/0/imported = false
tracks/0/enabled = true
tracks/0/keys = {
"times": PoolRealArray( 0, 2, 6 ),
"transitions": PoolRealArray( 1, 1, 1 ),
"update": 0,
"values": [ Vector2( 0, 0 ), Vector2( -100, 0 ), Vector2( 100, 0 ) ]
}

[sub_resource type="Animation" id=2]
length = 0.001
tracks/0/type = "value"
tracks/0/path = NodePath(".:position")
tracks/0/interp = 1
tracks/0/loop_wrap = true
tracks/0/imported = false
tracks/0/enabled = true
tracks/0/keys = {
"times": PoolRealArray( 0 ),
"transitions": PoolRealArray( 1 ),
"update": 0,
"values": [ Vector2( 0, 0 ) ]
}

[node name="Cloud" type="Node2D"]
script = ExtResource( 2 )

[node name="Sprite" type="Sprite" parent="."]
modulate = Color( 0.454902, 0.454902, 0.454902, 1 )
scale = Vector2( 0.5, 0.5 )
texture = ExtResource( 1 )

[node name="Timer" type="Timer" parent="Sprite"]

[node name="RayCast2D" type="RayCast2D" parent="Sprite"]
position = Vector2( 0.33371, 70.7465 )
enabled = true
cast_to = Vector2( 0, 1400 )

[node name="AnimationPlayer" type="AnimationPlayer" parent="Sprite"]
autoplay = "CloudMovement"
anims/CloudMovement = SubResource( 1 )
anims/RESET = SubResource( 2 )

[connection signal="timeout" from="Sprite/Timer" to="." method="_on_Timer_timeout"]
